Access Added = 0.033783782
Access Removed = 0.13513513
Access Changed = 0.006756757
Code Added = 0.4054054
Code Removed = 0.2027027
Code Changed = 0.3108108
Constructor Added = 0.033783782
Constructor Removed = 0.006756757
Field Added = 0.11486486
Field Removed = 0.054054055
InnerClass Added = 0.027027028
InnerClass Removed = 0.013513514
InnerInterface Added = 0.013513514
InnnerInterface Removed = 0.0
ImportSection Added = 0.006756757
ImportSection Removed = 0.006756757
Import Added = 0.2837838
Import Removed = 0.10135135
Method Added = 0.1891892
Method Removed = 0.08108108
MethodBlock Added = 0.006756757
MethodBlock Removed = 0.006756757
Modifier Added = 0.074324325
Modifier Removed = 0.06081081
Parameter Added = 0.04054054
Parameter Removed = 0.0
Parameter Removed = 0.013513514
Parameter Reordered = 0.02027027
Parameter ReordereRenamed = 0.006756757
Parameter TypeChanged = 0.027027028
Parameter ReturnTypeChanged = 0.033783782
TypeDeclaration Added = 0.0
TypeDeclaration Removed = 0.0
TypeChangedFromCtoI Removed = 0.006756757
TypeChangedFromItoC Removed = 0.006756757
Throws Added = 0.0
Throws Removed = 0.006756757
Throws Reordered = 0.006756757
Variable Added = 0.027027028
Variable Removed = 0.027027028
