Access Added = 0.0485133
Access Removed = 0.05320814
Access Changed = 0.0046948357
Code Added = 0.2316119
Code Removed = 0.1517997
Code Changed = 0.23630673
Constructor Added = 0.0093896715
Constructor Removed = 0.0
Field Added = 0.040688574
Field Removed = 0.032863848
InnerClass Added = 0.051643193
InnerClass Removed = 0.02347418
InnerInterface Added = 0.012519562
InnnerInterface Removed = 0.0
ImportSection Added = 0.0031298904
ImportSection Removed = 0.0
Import Added = 0.2316119
Import Removed = 0.12363067
Method Added = 0.22691706
Method Removed = 0.11580595
MethodBlock Added = 0.0031298904
MethodBlock Removed = 0.0015649452
Modifier Added = 0.040688574
Modifier Removed = 0.02660407
Parameter Added = 0.014084507
Parameter Removed = 0.0
Parameter Removed = 0.034428794
Parameter Reordered = 0.0031298904
Parameter ReordereRenamed = 0.0031298904
Parameter TypeChanged = 0.021909233
Parameter ReturnTypeChanged = 0.02347418
TypeDeclaration Added = 0.0
TypeDeclaration Removed = 0.0015649452
TypeChangedFromCtoI Removed = 0.0
TypeChangedFromItoC Removed = 0.0
Throws Added = 0.012519562
Throws Removed = 0.014084507
Throws Reordered = 0.0015649452
Variable Added = 0.007824726
Variable Removed = 0.007824726
