Access Added = 0.017421603
Access Removed = 0.012775842
Access Changed = 0.017421603
Code Added = 0.6504065
Code Removed = 0.3089431
Code Changed = 0.48315912
Constructor Added = 0.008130081
Constructor Removed = 0.0034843206
Field Added = 0.07317073
Field Removed = 0.015098723
InnerClass Added = 0.024390243
InnerClass Removed = 0.0023228803
InnerInterface Added = 0.0
InnnerInterface Removed = 0.0
ImportSection Added = 0.0011614402
ImportSection Removed = 0.0023228803
Import Added = 0.21022068
Import Removed = 0.09639954
Method Added = 0.20092915
Method Removed = 0.049941927
MethodBlock Added = 0.0011614402
MethodBlock Removed = 0.0
Modifier Added = 0.006968641
Modifier Removed = 0.008130081
Parameter Added = 0.030197445
Parameter Removed = 0.0
Parameter Removed = 0.018583043
Parameter Reordered = 0.006968641
Parameter ReordereRenamed = 0.0011614402
Parameter TypeChanged = 0.0046457606
Parameter ReturnTypeChanged = 0.009291521
TypeDeclaration Added = 0.0
TypeDeclaration Removed = 0.0
TypeChangedFromCtoI Removed = 0.0
TypeChangedFromItoC Removed = 0.0
Throws Added = 0.0
Throws Removed = 0.0011614402
Throws Reordered = 0.0
Variable Added = 0.009291521
Variable Removed = 0.009291521
