Access Added = 0.026086956
Access Removed = 0.017391304
Access Changed = 0.0
Code Added = 0.2521739
Code Removed = 0.13043478
Code Changed = 0.2
Constructor Added = 0.008695652
Constructor Removed = 0.0
Field Added = 0.09565217
Field Removed = 0.04347826
InnerClass Added = 0.034782607
InnerClass Removed = 0.017391304
InnerInterface Added = 0.0
InnnerInterface Removed = 0.0
ImportSection Added = 0.0
ImportSection Removed = 0.0
Import Added = 0.13913043
Import Removed = 0.069565214
Method Added = 0.13913043
Method Removed = 0.034782607
MethodBlock Added = 0.0
MethodBlock Removed = 0.0
Modifier Added = 0.04347826
Modifier Removed = 0.0
Parameter Added = 0.026086956
Parameter Removed = 0.0
Parameter Removed = 0.017391304
Parameter Reordered = 0.017391304
Parameter ReordereRenamed = 0.0
Parameter TypeChanged = 0.0
Parameter ReturnTypeChanged = 0.0
TypeDeclaration Added = 0.0
TypeDeclaration Removed = 0.0
TypeChangedFromCtoI Removed = 0.0
TypeChangedFromItoC Removed = 0.0
Throws Added = 0.008695652
Throws Removed = 0.008695652
Throws Reordered = 0.0
Variable Added = 0.017391304
Variable Removed = 0.017391304
