Access Added = 0.0066322773
Access Removed = 0.016212232
Access Changed = 0.008106116
Code Added = 0.23839352
Code Removed = 0.14554164
Code Changed = 0.20633751
Constructor Added = 0.008474576
Constructor Removed = 0.002579219
Field Added = 0.07258659
Field Removed = 0.030213706
InnerClass Added = 0.018422991
InnerClass Removed = 0.008106116
InnerInterface Added = 0.0029476788
InnnerInterface Removed = 7.369197E-4
ImportSection Added = 7.369197E-4
ImportSection Removed = 7.369197E-4
Import Added = 0.18054532
Import Removed = 0.08585114
Method Added = 0.16912307
Method Removed = 0.054900516
MethodBlock Added = 0.002210759
MethodBlock Removed = 0.0
Modifier Added = 0.008106116
Modifier Removed = 0.013264555
Parameter Added = 0.049742077
Parameter Removed = 3.6845985E-4
Parameter Removed = 0.011053795
Parameter Reordered = 0.02173913
Parameter ReordereRenamed = 0.0077376566
Parameter TypeChanged = 0.019896831
Parameter ReturnTypeChanged = 0.019159911
TypeDeclaration Added = 0.0
TypeDeclaration Removed = 0.0
TypeChangedFromCtoI Removed = 0.0
TypeChangedFromItoC Removed = 0.0
Throws Added = 0.012159174
Throws Removed = 0.007000737
Throws Reordered = 0.0029476788
Variable Added = 0.011053795
Variable Removed = 0.011422255
