Access Added = 0.0
Access Removed = 0.014925373
Access Changed = 0.0074626864
Code Added = 0.3880597
Code Removed = 0.23880596
Code Changed = 0.35820895
Constructor Added = 0.0
Constructor Removed = 0.0
Field Added = 0.08208955
Field Removed = 0.05970149
InnerClass Added = 0.0074626864
InnerClass Removed = 0.0074626864
InnerInterface Added = 0.0
InnnerInterface Removed = 0.0
ImportSection Added = 0.0
ImportSection Removed = 0.0
Import Added = 0.1119403
Import Removed = 0.08208955
Method Added = 0.1119403
Method Removed = 0.06716418
MethodBlock Added = 0.0
MethodBlock Removed = 0.0
Modifier Added = 0.03731343
Modifier Removed = 0.0074626864
Parameter Added = 0.06716418
Parameter Removed = 0.0
Parameter Removed = 0.0
Parameter Reordered = 0.04477612
Parameter ReordereRenamed = 0.0
Parameter TypeChanged = 0.029850746
Parameter ReturnTypeChanged = 0.0
TypeDeclaration Added = 0.0
TypeDeclaration Removed = 0.0
TypeChangedFromCtoI Removed = 0.0
TypeChangedFromItoC Removed = 0.0
Throws Added = 0.0074626864
Throws Removed = 0.029850746
Throws Reordered = 0.0
Variable Added = 0.02238806
Variable Removed = 0.02238806
